Introducción al Análisis de Datos con R - 5 Importar/exportar datos en R
…
5.1.3 Formas de importar datos

A continuación vamos a detallar dos formas de abrir el archivo urbana_weather.xlsx que contiene datos meteorológicos de la ciudad de Urbana (Illinois).

5.1.3.1 Desde la consola (recomendado)

Una vez que descargamos el archivo datos en la carpeta datasets dentro de nuestro directorio de trabajo o proyecto podemos leerlo en R usando la función import() del paquete rio. Esta función se encargará de llamar la función necesaria para leer el archivo que le suministremos.

urbana <- import("datasets/urbana_weather.xlsx", setclass = "tibble")
urbana

# A tibble: 240 × 4
    YEAR month precip  temp
   <dbl> <chr>  <dbl> <dbl>
 1  2000 Jan     1.54  25.6
 2  2001 Jan     1.32  25.4
 3  2002 Jan     2.81  34  
 4  2003 Jan     0.79  21.1
 5  2004 Jan     2.18  24  
 6  2005 Jan     6.2   27.8
 7  2006 Jan     1.78  37.8
 8  2007 Jan     3.03  29.7
 9  2008 Jan     2.31  26.2
10  2009 Jan     0.68  18.8
# ℹ 230 more rows
…
