Introducción al Análisis de Datos con R - 7 Manipulando datos
…
7  Manipulando datos

Luego de importar los datos R es necesario explorarlos y, dependiendo de su organización o el análisis que querramos realizar, hay que realizar algun tipo transformación, resumen, agrupamiento o consultas.

Para ilustrar esta sección vamos a usar el set de datos pesada_novillos.xlsx. Suponiendo que ya está descargado en la carpeta de trabajo o proyecto.

pacman::p_load(rio)
novillos <- import("datasets/pesada_novillos.xlsx", setclass = "tibble")
novillos

# A tibble: 1,842 × 13
   IDV   Tropa Procedencia Fecha_Ingreso Peso_inicial Peso_anterior GPV_anterior
   <chr> <dbl> <chr>       <chr>                <dbl>         <dbl>        <dbl>
 1 GH73…     2 <NA>        42939                  188           306           51
 2 IA67…     2 La Rosita   42940                  232           290            2
 3 PO15…     2 La Alameda  42939                  204           290           33
 4 GH73…     2 <NA>        42940                  204           303           27
 5 SZ20…     2 La Alameda  42940                  202           300           30
 6 IA67…     2 La Rosita   42940                  234           333           38
 7 PO15…     2 Los Corral… 42938                  214           287           14
 8 PO15…     2 Los Corral… 42939                  184           315           37
 9 NS50…     2 La Rosita   42938                  234           288            0
10 QX67…     2 La Alameda  42940                  206           262            2
# ℹ 1,832 more rows
# ℹ 6 more variables: GDM_anterior <dbl>, Fecha <chr>, Hora <chr>, Peso <dbl>,
#   Días <dbl>, Días_total <dbl>
…
Las columnas del set de datos de ejemplo se denominan:

names(novillos)

 [1] "IDV"           "Tropa"         "Procedencia"   "Fecha_Ingreso"
 [5] "Peso_inicial"  "Peso_anterior" "GPV_anterior"  "GDM_anterior" 
 [9] "Fecha"         "Hora"          "Peso"          "Días"         
[13] "Días_total"   

Si quisieramos seleccionar las columnas Procedencia, Peso_inicial, Peso_anterior y Peso, podríamos ejectuar:

select(novillos, Procedencia, Peso_inicial, Peso_anterior, Peso)

# A tibble: 1,842 × 4
   Procedencia    Peso_inicial Peso_anterior  Peso
   <chr>                 <dbl>         <dbl> <dbl>
 1 <NA>                    188           306   398
 2 La Rosita               232           290   387
 3 La Alameda              204           290   386
 4 <NA>                    204           303   382
 5 La Alameda              202           300   382
 6 La Rosita               234           333   374
 7 Los Corralitos          214           287   371
 8 Los Corralitos          184           315   369
 9 La Rosita               234           288   365
10 La Alameda              206           262   365
# ℹ 1,832 more rows

El resultado es un nuevo data.frame o tibble que sólo contiene las 4 columnas seleccionadas. Si quisieramos guardar este resultado aparte podemos asignarlo a un objeto.

pesos <- select(novillos, Procedencia, Peso_inicial, Peso_anterior, Peso)
pesos

# A tibble: 1,842 × 4
   Procedencia    Peso_inicial Peso_anterior  Peso
   <chr>                 <dbl>         <dbl> <dbl>
 1 <NA>                    188           306   398
 2 La Rosita               232           290   387
 3 La Alameda              204           290   386
 4 <NA>                    204           303   382
 5 La Alameda              202           300   382
 6 La Rosita               234           333   374
 7 Los Corralitos          214           287   371
 8 Los Corralitos          184           315   369
 9 La Rosita               234           288   365
10 La Alameda              206           262   365
# ℹ 1,832 more rows

Cuando se imprime en la consola, es lo mismo que usar print() la cual por defecto muestra las 10 primeras observaciones y la cantidad de columnas que entran en la pantalla. Aquellas columnas que no entran son indicadas al pie.

Si uno desea ver más registros se puede usar el argumento n = de print()

print(pesos, n = 15)

# A tibble: 1,842 × 4
   Procedencia    Peso_inicial Peso_anterior  Peso
   <chr>                 <dbl>         <dbl> <dbl>
 1 <NA>                    188           306   398
 2 La Rosita               232           290   387
 3 La Alameda              204           290   386
 4 <NA>                    204           303   382
 5 La Alameda              202           300   382
 6 La Rosita               234           333   374
 7 Los Corralitos          214           287   371
 8 Los Corralitos          184           315   369
 9 La Rosita               234           288   365
10 La Alameda              206           262   365
11 La Alameda              216           308   362
12 La Rosita               240           298   362
13 La Alameda              164           285   361
14 La Rosita               216           308   361
15 La Alameda              176           289   361
# ℹ 1,827 more rows

Con n = "all" o n = Inf se imprimen todas (no se muestra por razones obvias)

El orden en que aparecen las variables en el resultado es el orden que se utilizó al seleccionarlas.

select(novillos, Procedencia, Peso, Peso_inicial, Peso_anterior)

# A tibble: 1,842 × 4
   Procedencia     Peso Peso_inicial Peso_anterior
   <chr>          <dbl>        <dbl>         <dbl>
 1 <NA>             398          188           306
 2 La Rosita        387          232           290
 3 La Alameda       386          204           290
 4 <NA>             382          204           303
 5 La Alameda       382          202           300
 6 La Rosita        374          234           333
 7 Los Corralitos   371          214           287
 8 Los Corralitos   369          184           315
 9 La Rosita        365          234           288
10 La Alameda       365          206           262
# ℹ 1,832 more rows

También se puede usar los comandos starts_with(), ends_with(), contains(), etc (ver ?select_helpers) para más opciones). Para elegir varias columnas que tienen un patrón sin tener que tipear todos los nombres.

select(novillos, starts_with("P"))

# A tibble: 1,842 × 4
   Procedencia    Peso_inicial Peso_anterior  Peso
   <chr>                 <dbl>         <dbl> <dbl>
 1 <NA>                    188           306   398
 2 La Rosita               232           290   387
 3 La Alameda              204           290   386
 4 <NA>                    204           303   382
 5 La Alameda              202           300   382
 6 La Rosita               234           333   374
 7 Los Corralitos          214           287   371
 8 Los Corralitos          184           315   369
 9 La Rosita               234           288   365
10 La Alameda              206           262   365
# ℹ 1,832 more rows

O según el tipo de varabiles con where(). Por ejemplo, aquellas que son de tipo numeric.

select(novillos, where(is.numeric))

# A tibble: 1,842 × 8
   Tropa Peso_inicial Peso_anterior GPV_anterior GDM_anterior  Peso  Días
   <dbl>        <dbl>         <dbl>        <dbl>        <dbl> <dbl> <dbl>
 1     2          188           306           51         1.04   398    76
 2     2          232           290            2         0.04   387    76
 3     2          204           290           33         0.67   386    76
 4     2          204           303           27         0.52   382    75
 5     2          202           300           30         0.58   382    75
 6     2          234           333           38         0.73   374    75
 7     2          214           287           14         0.27   371    75
 8     2          184           315           37         0.76   369    76
 9     2          234           288            0         0      365    76
10     2          206           262            2         0.08   365   132
# ℹ 1,832 more rows
# ℹ 1 more variable: Días_total <dbl>

Tambien podemos seleccionar por rangos de nombres o posicion. Por ejemplo las primeras 4 columnas:

select(novillos, 1:4)

# A tibble: 1,842 × 4
   IDV       Tropa Procedencia    Fecha_Ingreso
   <chr>     <dbl> <chr>          <chr>        
 1 GH738B371     2 <NA>           42939        
 2 IA671B298     2 La Rosita      42940        
 3 PO150A818     2 La Alameda     42939        
 4 GH738B340     2 <NA>           42940        
 5 SZ208H766     2 La Alameda     42940        
 6 IA671B133     2 La Rosita      42940        
 7 PO150A532     2 Los Corralitos 42938        
 8 PO150A563     2 Los Corralitos 42939        
 9 NS509H071     2 La Rosita      42938        
10 QX678K546     2 La Alameda     42940        
# ℹ 1,832 more rows

Lo mismo pero usando un rango de nombres:

select(novillos, IDV:Fecha_Ingreso)

# A tibble: 1,842 × 4
   IDV       Tropa Procedencia    Fecha_Ingreso
   <chr>     <dbl> <chr>          <chr>        
 1 GH738B371     2 <NA>           42939        
 2 IA671B298     2 La Rosita      42940        
 3 PO150A818     2 La Alameda     42939        
 4 GH738B340     2 <NA>           42940        
 5 SZ208H766     2 La Alameda     42940        
 6 IA671B133     2 La Rosita      42940        
 7 PO150A532     2 Los Corralitos 42938        
 8 PO150A563     2 Los Corralitos 42939        
 9 NS509H071     2 La Rosita      42938        
10 QX678K546     2 La Alameda     42940        
# ℹ 1,832 more rows

Para omitir algunas columnas en la seleccion se puede usar el - antes del nombre. Por ejemplo, omitir la columna IDV y todas las que empiezan con P.

select(novillos, -IDV, -starts_with("P"))

# A tibble: 1,842 × 8
   Tropa Fecha_Ingreso GPV_anterior GDM_anterior Fecha Hora      Días Días_total
   <dbl> <chr>                <dbl>        <dbl> <chr> <chr>    <dbl>      <dbl>
 1     2 42939                   51         1.04 43138 0.80824…    76        293
 2     2 42940                    2         0.04 43138 0.46511…    76        293
 3     2 42939                   33         0.67 43138 0.34270…    76        302
 4     2 42940                   27         0.52 43138 0.34829…    75        293
 5     2 42940                   30         0.58 43138 0.80134…    75        304
 6     2 42940                   38         0.73 43138 0.34018…    75        295
 7     2 42938                   14         0.27 43138 0.32917…    75        303
 8     2 42939                   37         0.76 43138 0.33152…    76        303
 9     2 42938                    0         0    43138 0.37302…    76        302
10     2 42940                    2         0.08 43143 0.46458…   132        306
# ℹ 1,832 more rows
…
Otra tarea muy frecuente es seleccionar casos o observaciones que cumplan con alguna condición. Esto se lleva a cabo con filter().

Se pueden usar los operadores lógicos (==, >, <, >=, <=, !=) o booleanos (&, |) para crear pruebas o condiciones lógicas.

Un operador que no vimos antes es el pertenece %in% el que se usa para chequear si un valor está dentro de un conjunto de valores posibles. Por ejemplo para chequar si el número 2 está dentro un conjunto de numeros del 1 al 10.

2 %in% 1:10

[1] TRUE

Por ejemplo, para seleccionar los novillos de Los Corralitos:

filter(novillos, Procedencia == 'Los Corralitos')

# A tibble: 57 × 13
   IDV   Tropa Procedencia Fecha_Ingreso Peso_inicial Peso_anterior GPV_anterior
   <chr> <dbl> <chr>       <chr>                <dbl>         <dbl>        <dbl>
 1 PO15…     2 Los Corral… 42938                  214           287           14
 2 PO15…     2 Los Corral… 42939                  184           315           37
 3 PO15…     2 Los Corral… 42937                  168           266           22
 4 PO15…     2 Los Corral… 42937                  182           281           31
 5 PO15…     2 Los Corral… 42938                  200           276           20
 6 PO15…     2 Los Corral… 42937                  162           231           19
 7 PO15…     2 Los Corral… 42937                  166           240           26
 8 PO15…     2 Los Corral… 42942                  162           232           28
 9 PO15…     2 Los Corral… 42939                  200           258           26
10 PO15…     2 Los Corral… 42940                  170           252           37
# ℹ 47 more rows
# ℹ 6 more variables: GDM_anterior <dbl>, Fecha <chr>, Hora <chr>, Peso <dbl>,
#   Días <dbl>, Días_total <dbl>

Para crear un subconjunto podemos asignarlo y crear un nuevo set de datos.

corralitos <- filter(novillos, Procedencia == 'Los Corralitos')

La selección se puede hacer por más de una condición. Por ejemplo, seleccionar los de Los Corralitos que pesen más de 300 kg:

filter(novillos, Procedencia == 'Los Corralitos', Peso > 300)

# A tibble: 29 × 13
   IDV   Tropa Procedencia Fecha_Ingreso Peso_inicial Peso_anterior GPV_anterior
   <chr> <dbl> <chr>       <chr>                <dbl>         <dbl>        <dbl>
 1 PO15…     2 Los Corral… 42938                  214           287           14
 2 PO15…     2 Los Corral… 42939                  184           315           37
 3 PO15…     2 Los Corral… 42937                  168           266           22
 4 PO15…     2 Los Corral… 42937                  182           281           31
 5 PO15…     2 Los Corral… 42938                  200           276           20
 6 PO15…     2 Los Corral… 42937                  162           231           19
 7 PO15…     2 Los Corral… 42937                  166           240           26
 8 PO15…     2 Los Corral… 42942                  162           232           28
 9 PO15…     1 Los Corral… 23/7/2017              252           343           31
10 PO15…     1 Los Corral… 22/7/2017              234           338           23
# ℹ 19 more rows
# ℹ 6 more variables: GDM_anterior <dbl>, Fecha <chr>, Hora <chr>, Peso <dbl>,
#   Días <dbl>, Días_total <dbl>

filter() asume que cada condicion se debe cumplir en simultaneo para que la observación sea seleccionada. Esto equivale a utilizar el operador &( Y ). En caso de querer seleccionar aquellos registros que cumple una u otra condicion se usa el operador | ( O ). Poniendo ! delante de la condicion se invierte la selección.

Por ejemplo, para obtener novillos que son de Los Corralitos O pesan más de 300 kg.

filter(novillos, Procedencia == 'Los Corralitos' | Peso > 300)

# A tibble: 841 × 13
   IDV   Tropa Procedencia Fecha_Ingreso Peso_inicial Peso_anterior GPV_anterior
   <chr> <dbl> <chr>       <chr>                <dbl>         <dbl>        <dbl>
 1 GH73…     2 <NA>        42939                  188           306           51
 2 IA67…     2 La Rosita   42940                  232           290            2
 3 PO15…     2 La Alameda  42939                  204           290           33
 4 GH73…     2 <NA>        42940                  204           303           27
 5 SZ20…     2 La Alameda  42940                  202           300           30
 6 IA67…     2 La Rosita   42940                  234           333           38
 7 PO15…     2 Los Corral… 42938                  214           287           14
 8 PO15…     2 Los Corral… 42939                  184           315           37
 9 NS50…     2 La Rosita   42938                  234           288            0
10 QX67…     2 La Alameda  42940                  206           262            2
# ℹ 831 more rows
# ℹ 6 more variables: GDM_anterior <dbl>, Fecha <chr>, Hora <chr>, Peso <dbl>,
#   Días <dbl>, Días_total <dbl>
…
Seleccionar los novillos que a su vez pesan entre 250 y 350 kg.

Seleccionar los novillos que NO provienen de La Alameda o La Rosita y a su vez pesan entrte 250 y 350 kg.

Guardar los datos del punto anterior en un objeto nuevo.

7.5.1 Filtrando valores faltantes

En algunas ocasiones los datos vienen incompletos y es necesario eliminar registros con algun dato faltante.

A continuación un filtro que permite seleccionar los registros con al menos 1 valor NA

novillos |> filter(if_any(everything(), is.na))

# A tibble: 305 × 13
   IDV   Tropa Procedencia Fecha_Ingreso Peso_inicial Peso_anterior GPV_anterior
   <chr> <dbl> <chr>       <chr>                <dbl>         <dbl>        <dbl>
 1 GH73…     2 <NA>        42939                  188           306           51
 2 GH73…     2 <NA>        42940                  204           303           27
 3 FC11…     2 <NA>        42937                  170           265           31
 4 CW82…     2 <NA>        42937                  166           295           49
 5 GE32…     2 <NA>        42937                  194           286           22
 6 GH73…     2 <NA>        42942                  156           288           37
 7 <NA>      2 <NA>        <NA>                   227           252           25
 8 BX18…     2 <NA>        42983                  167           246           20
 9 BX18…     2 <NA>        42983                  179           258           23
10 FM58…     2 <NA>        42940                  176           284           46
# ℹ 295 more rows
# ℹ 6 more variables: GDM_anterior <dbl>, Fecha <chr>, Hora <chr>, Peso <dbl>,
#   Días <dbl>, Días_total <dbl>
…
7.6 Encadenando operaciones (operador %>% o |>)

El operador %>% (R < 4.1) o |> (R >= 4.1.+) permite encadenar operaciones sucesivas para evitar tener que crear tablas intermedias o anidar funciones. El operador y se le de izquierda a derecha y se puede traducir como luego.

Por ejemplo, reportar los IDV y Peso de los novillos con más de 250 kg. Esto implicaría seleccionar las columnas de interés creando tablas intermedias y luego filtrar la tabla o vice versa.

Creando tablas intermedias

novillos2 <- select(novillos, IDV, Peso)
novillos2

# A tibble: 1,537 × 2
   IDV        Peso
   <chr>     <dbl>
 1 IA671B298   387
 2 PO150A818   386
 3 SZ208H766   382
 4 IA671B133   374
 5 PO150A532   371
 6 PO150A563   369
 7 NS509H071   365
 8 QX678K546   365
 9 QX675I247   362
10 NS579B014   362
# ℹ 1,527 more rows

novillos2 <- filter(novillos2, Peso > 250)
novillos2

# A tibble: 1,440 × 2
   IDV        Peso
   <chr>     <dbl>
 1 IA671B298   387
 2 PO150A818   386
 3 SZ208H766   382
 4 IA671B133   374
 5 PO150A532   371
 6 PO150A563   369
 7 NS509H071   365
 8 QX678K546   365
 9 QX675I247   362
10 NS579B014   362
# ℹ 1,430 more rows

Anidando las funciones:

filter(select(novillos, IDV, Peso), Peso > 250)

# A tibble: 1,440 × 2
   IDV        Peso
   <chr>     <dbl>
 1 IA671B298   387
 2 PO150A818   386
 3 SZ208H766   382
 4 IA671B133   374
 5 PO150A532   371
 6 PO150A563   369
 7 NS509H071   365
 8 QX678K546   365
 9 QX675I247   362
10 NS579B014   362
# ℹ 1,430 more rows

Una opción más clara para leer y eficiente es usando |>

novillos |>
  select(IDV, Peso) |>
  filter(Peso >  250)

# A tibble: 1,440 × 2
   IDV        Peso
   <chr>     <dbl>
 1 IA671B298   387
 2 PO150A818   386
 3 SZ208H766   382
 4 IA671B133   374
 5 PO150A532   371
 6 PO150A563   369
 7 NS509H071   365
 8 QX678K546   365
 9 QX675I247   362
10 NS579B014   362
# ℹ 1,430 more rows
…
ACTIVIDAD

Encadenar con el operador el filtro del punto 3 de la actividad anterior, selección de las variables Procedencia, IDV, Peso y la función View() para ver los datos resultantes.

7.7 Ordenar las filas

Para ordenar según algún criterio aplicado a las columnas se usa arrange(). Por ejemplo, continuar con lo anterior pero mostrar ordenadospor peso.

novillos |>
  select(IDV, Peso) |>
  filter(Peso >  250) |>
  arrange(Peso)

# A tibble: 1,440 × 2
   IDV        Peso
   <chr>     <dbl>
 1 SZ208H833   251
 2 NS545A388   251
 3 ME367A545   251
 4 NS509H010   251
 5 PO150A777   251
 6 PO150A752   251
 7 SZ208H765   252
 8 NS545A455   252
 9 SZ208I511   252
10 ME367A548   252
# ℹ 1,430 more rows
…
